{
    "antifeatures": {
        "Ads": "Ky aplikacion përmban reklama",
        "DisabledAlgorithm": "Ky aplikacion ka një nënshkrim të dobët sigurie",
        "KnownVuln": "Ky aplikacion përmban një cenueshmëri të njohur sigurie",
        "NoSourceSince": "Kodi burim s’mund të kihet më, s’ka përditësime të mundshme",
        "NonFreeAdd": "Ky aplikacion promovon shtesa jo të lira",
        "NonFreeAssets": "Ky aplikacion përmban elementë jo të lirë",
        "NonFreeDep": "Ky aplikacion varet nga aplikacione të tjera jo të lira",
        "NonFreeNet": "Ky aplikacion rekomandon shërbime rrjeti jo të lira",
        "Tracking": "Ky aplikacion gjurmon dhe raporton veprimtarinë tuaj",
        "UpstreamNonFree": "Kodi burim origjinal s’është plotësisht i Lirë"
    },
    "app_categories": {
        "Connectivity": "Aftësi lidhjeje",
        "Development": "Zhvillim",
        "Games": "Lojëra",
        "Graphics": "Grafika",
        "Internet": "Internet",
        "Money": "Para",
        "Multimedia": "Multimedia",
        "Navigation": "Lëvizje",
        "Phone & SMS": "Telefon &amp; SMS",
        "Reading": "Lexim",
        "Science & Education": "Shkencë &amp; Edukim",
        "Security": "Siguri",
        "Sports & Health": "Sporte &amp; Shëndet",
        "System": "Sistem",
        "Theming": "Ndryshim temash",
        "Time": "Kohë",
        "Writing": "Shkrim",
        "show_all_packages": "Shihni krejt %d paketat"
    },
    "index": {
        "download_fdroid": "Shkarkoni F-Droid-in",
        "gpg_signature": "Nënshkrim PGP",
        "introduction": "F-Droid është një katalog aplikacionesh FOSS (Free and Open Source Software) të instalueshëm, për platformën Android. Klienti e bën të lehtë shfletimin, instalimin dhe ndjekjen e përditësimeve në pajisjen tuaj.",
        "screenshot": "Foto ekrani nga aplikacioni Android F-Droid",
        "title": "Ç’është F-Droid?"
    },
    "navigation": {
        "about": "Mbi",
        "apps": "Aplikacione",
        "contribute": "Kontribuoni",
        "documentation": "Dokumentime",
        "edit_on_gitlab": "Përpunojeni në GitLab",
        "forum": "Forum",
        "issues": "Probleme",
        "news": "Lajme",
        "translate_on_weblate": "Përkthejeni në Weblate"
    },
    "package": {
        "added_on": "Shtuar më {{ package_added_date }}",
        "anti_features": "Anti-Veçori",
        "anti_features_warning": "Ky aplikacion ka veçori që mund të mos i pëlqeni.",
        "author": "Autor",
        "build_log": "Regjistër Montimesh",
        "build_metadata": "Tejtëdhëna Montimi",
        "changelog": "Regjistër ndryshimesh",
        "donate": "Dhuroni",
        "download": "Shkarkoni {{ file_extension }}",
        "flattr": "Flattr",
        "gpg_signature": "Nënshkrim PGP",
        "issue_tracker": "Gjurmues të Metash",
        "liberapay": "Liberapay",
        "license": "Licencë",
        "minimum_android_version": "Ky version lyp Android {{ android_version }} ose më të ri.",
        "new_in_version": "Të reja në versionin {{ latest_version }}",
        "opencollective": "Open Collective",
        "package_icon_alt": "ikonë pakete",
        "package_screenshot_alt": "foto ekrani aplikacioni",
        "packages": "Paketa",
        "permissions": "Leje",
        "signed_by_developer": "Është montuar dhe nënshkruar nga zhvilluesi origjinal.",
        "signed_by_fdroid": "Është montuar dhe nënshkruar nga F-Droid, dhe me garanci se i përgjigjet <a href=\"{{ source_code_url }}\">këtij paketimi të burimit</a>.",
        "source_code": "Kod Burim",
        "suggest_downloading_via_fdroid": "Edhe pse ka shkarkime APK më poshtë për t’ju dhënë mundësi zgjedhjeje, duhet të keni parasysh se duke instaluar në këtë mënyrë s’do të merrni njoftime përditësimesh dhe është një rrugë më pak e sigurt për shkarkime. Këshillojmë të instaloni klientin F-Droid dhe të përdorni atë.",
        "suggested": "e sugjeruar",
        "technical_info": "Të dhëna teknike",
        "translation": "Përkthim",
        "version_info": "<b>Version {{ package_version }}</b> ({{ package_version_code }})",
        "website": "Sajt"
    },
    "permissions": {
        "permdesc_acceptHandovers": "I lejon aplikacionit të vazhdojë një thirrje e cila pat nisur në një tjetër aplikacion.",
        "permdesc_accessBackgroundLocation": "Nëse kjo akordohet, si shtesë, për njohje të përafërt ose të saktë të vendndodhjes, aplikacioni mund të njohë vendndodhjen, teksa xhiron në prapaskenë.",
        "permdesc_accessCoarseLocation": "Ky aplikacion mund të marrë vendndodhjen tënde të përafërt nga shërbimet e vendndodhjes kur aplikacioni është në përdorim. Shërbimet e vendndodhjes për pajisjen tënde duhet të aktivizohen që aplikacioni të marrë vendndodhjen.",
        "permdesc_accessDrmCertificates": "I lejon një aplikacioni të sjellë dhe përdorë dëshmi DRM. S’duhet të jetë kurrë e nevojshme për aplikacione normale.",
        "permdesc_accessFineLocation": "Ky aplikacion mund të marrë vendndodhjen tënde të saktë nga shërbimet e vendndodhjes kur aplikacioni është në përdorim. Shërbimet e vendndodhjes për pajisjen tënde duhet të aktivizohen që aplikacioni të marrë vendndodhjen. Kjo mund të rrisë përdorimin e baterisë.",
        "permdesc_accessImsCallService": "I lejon aplikacionit të përdorë shërbime IMS, për të bërë thirrje pa ndërhyrjen tuaj.",
        "permdesc_accessLocationExtraCommands": "I lejon aplikacionit të përdorë urdhra ekstra furnizuesi vendndodhjesh. Kjo mund ta lejojë aplikacionin të ngatërrohet në punën e GPS-së ose burimesh të tjera vendndodhjesh.",
        "permdesc_accessNetworkConditions": "I lejon aplikacionit të përgjojë për vëzhgime lidhur me kushte rrjeti. S’duhet të jetë kurrë e nevojshme për aplikacione normale.",
        "permdesc_accessNetworkState": "I lejon aplikacionit të shohë të dhëna rreth lidhjesh në rrjet, bie fjala, ç’rrjete ekzistojnë dhe janë të lidhur.",
        "permdesc_accessNotifications": "I lejon aplikacionit të marrë, shqyrtojë dhe spastrojë njoftime, përfshi ato të postuara nga aplikacione të tjera.",
        "permdesc_accessWifiState": "I lejon aplikacionit të shohë të dhëna rreth pune në rrjet Wi-Fi, bie fjala, nëse Wi-Fi është i aktivizuar apo jo dhe emra pajisjesh të lidhura përmes Wi-Fi-t.",
        "permdesc_accessWimaxState": "I lejon aplikacionit të përcaktojë nëse është aktivizuar apo jo WiMAX dhe të dhëna rreth çfarëdo rrjetesh WiMAX që janë të lidhur.",
        "permdesc_access_notification_policy": "I lejon aplikacionit të lexojë dhe shkruajë formësim të llojit Mos Më Bezdisni.",
        "permdesc_activityRecognition": "Ky aplikacion mund të dallojë veprimtari tuajën fizike.",
        "permdesc_addVoicemail": "I lejon aplikacionit të shtojë mesazhe te mesazhet zanorë të marrë.",
        "permdesc_answerPhoneCalls": "I lejon aplikacionit t’i përgjigjet një thirrje telefonike.",
        "permdesc_audioWrite": "I lejon aplikacionit të ndryshojë koleksionin tuaj muzikor.",
        "permdesc_bindCarrierMessagingService": "I lejon atij që ka lejen të përdorë ndërfaqe të shkallës së epërme të një shërbimi mesazhesh. S’duhet të jetë kurrë e nevojshme për aplikacione normale.",
        "permdesc_bindCarrierServices": "I lejon atij që ka lejen të përdorë shërbime operatorësh. S’duhet të jetë kurrë e nevojshme për aplikacione normale.",
        "permdesc_bindCellBroadcastService": "Lejon që aplikacioni të lidhet me modulin e transmetimit celular për t'i transferuar mesazhet e transmetimit celular menjëherë kur merren. Sinjalizimet e transmetimit celular dërgohen në disa vendndodhje për të të paralajmëruar për situata urgjente. Aplikacionet keqdashëse mund të ndërhyjnë në cilësinë e funksionimit ose në veprimin e pajisjes sate kur merret një transmetim celular urgjent.",
        "permdesc_bindConditionProviderService": "I lejon atij që ka lejen të përdorë ndërfaqe të shkallës së epërme të një shërbimi furnizuesi kushtesh. S’duhet të jetë kurrë e nevojshme për aplikacione normale.",
        "permdesc_bindDreamService": "I lejon atij që ka lejen të përdorë ndërfaqe të shkallës së epërme të një shërbimi &lt;em&gt;dream&lt;/em&gt;. S’duhet të jetë kurrë e nevojshme për aplikacione normale.",
        "permdesc_bindNotificationListenerService": "I lejon atij që ka lejen të përdorë ndërfaqe të shkallës së epërme të një shërbimi dëgjimi njoftimesh. S’duhet të jetë kurrë e nevojshme për aplikacione normale.",
        "permdesc_bind_connection_service": "I lejon aplikacionit të ndërveprojë me shërbime telefonike për të kryer/marrë thirrje.",
        "permdesc_bind_incall_service": "I lejon aplikacionit të kontrollojë kur dhe si e sheh përdoruesi skenën për thirrje ardhëse.",
        "permdesc_bluetooth": "I lejon aplikacionit të shohë formësimin e Bluetooth-it në telefon, dhe të vendosë dhe pranojë lidhje me pajisje të çiftuara.",
        "permdesc_bluetoothAdmin": "I lejon aplikacionit të formësojë telefonin vendor Bluetooth, si dhe të zbulojë dhe çiftojë me pajisje të largëta.",
        "permdesc_bodySensors": "I lejon aplikacionit të hyjë në të dhëna prej ndijuesish që mbikëqyrin gjendjen tuaj fizike, bie fjala, frekuencën tuaj të rrahjes së zemrës.",
        "permdesc_broadcastSticky": "I lejon aplikacionit të dërgojë transmetime ngjitëse, që mbeten, pasi përfundon transmetimi. Përdorimi i tepruar i kësaj mund ta ngadalësojë telefonin ose ta bëjë të paqëndrueshëm, duke e bërë të përdorë shumë kujtesë.",
        "permdesc_callCompanionApp": "I lejon aplikacionit të shohë dhe të kontrollojë thirrje në zhvillim e sipër te pajisja. Kjo përfshin të dhëna të tilla si numra të thirrur për thirrje dhe gjendje thirrjesh.",
        "permdesc_callPhone": "I lejon aplikacionit të bëjë thirrje te numra pa ndërhyrjen tuaj. Kjo mund të shpjerë në faturime ose thirrje që s’priteshin. Vini re që kjo s’e lejon aplikacionin të bëjë thirrje te numra urgjencash. Aplikacione dashakeqe mund t’ju kushtojnë para, duke bërë thirrje pa ripohimin tuaj.",
        "permdesc_camera": "Ky aplikacion mund të bëjë foto dhe të regjistrojë video duke përdorur kamerën në çfarëdo kohe.",
        "permdesc_cameraOpenCloseListener": "Ky aplikacion mund të marrë telefonata mbrapsht kur hapet ose mbyllet një pajisje e kamerës (nga një aplikacion).",
        "permdesc_changeNetworkState": "I lejon aplikacionit të ndryshojë gjendjen e lidhjes në rrjet.",
        "permdesc_changeTetherState": "I lejon aplikacionit të ndryshojë gjendjen e aftësisë së lidhjes në rrjet të llojit \"tethered\".",
        "permdesc_changeWifiMulticastState": "I lejon aplikacionit të marrë pakete të dërguar në krejt pajisjet në një rrjet Wi-Fi duke përdorur adresa <em>multicast</em>, jo thjesht telefonin tuaj. Përdor më tepër energji se sa mënyra <em>non-multicast</em>.",
        "permdesc_changeWifiState": "I lejon aplikacionit të lidhet dhe shkëputet prej pikash hyrjeje Wi-Fi dhe të bëjë ndryshime te formësim pajisjesh për rrjete Wi-Fi.",
        "permdesc_changeWimaxState": "I lejon aplikacionit ta lidhë dhe shkëputë telefonin prej rrjetesh WiMAX.",
        "permdesc_connection_manager": "I lejon aplikacionit të administrojë lidhje telekom.",
        "permdesc_control_incall_experience": "Lejon aplikacionin të ofrojë përvojë përdoruesi mbi telefonatat.",
        "permdesc_createNetworkSockets": "I lejon aplikacionit të krijojë socket-e rrjeti dhe të përdorë protokolle të përshtatur rrjeti. Shfletuesi dhe aplikacionet të tjerë furnizojnë mjete për të dërguar të dhëna në internet, kështu që kjo leje s’është e domosdoshme për të dërguar të dhëna në internet.",
        "permdesc_disableKeyguard": "I lejon aplikacionit të çaktivizojë the keylock dhe çfarëdo sigurie të lidhur me fjalëkalimet. Për shembull, telefoni çaktivizon the keylock kur merret një thirrje ardhëse telefonike, mandej e riaktivizon keylock kur thirrja ka përfunduar.",
        "permdesc_enableCarMode": "I lejon aplikacionit të aktivizojë mënyrën automjet.",
        "permdesc_exemptFromAudioRecordRestrictions": "Përjashto aplikacionin nga kufizimet për të regjistruar audion.",
        "permdesc_expandStatusBar": "I lejon aplikacionit të zgjerojë ose tkurrë shtyllën e gjendjeve.",
        "permdesc_foregroundService": "I lejon aplikacionit të shfrytëzojë shërbime në prapaskenë.",
        "permdesc_getAccounts": "I lejon aplikacionit të marrë një listë të llogarive të njohura nga telefoni. Kjo mund të përfshijë çfarëdo llogarie të krijuar nga aplikacionet që keni krijuar.",
        "permdesc_getPackageSize": "I lejon aplikacionit të marrë madhësitë e kodit të vet, të dhënave dhe fshehtinës",
        "permdesc_getTasks": "I lejon aplikacionit të marrë të dhëna mbi punë aktualisht në xhirim ose të xhiruara më parë. Kjo mund ta lejojë aplikacionin të zbulojë të dhëna mbi cilat aplikacione janë përdorur te pajisja.",
        "permdesc_handoverStatus": "I lejon këtij aplikacioni të marrë të dhëna mbi shpërngulje aktuale Android Beam",
        "permdesc_imagesWrite": "I lejon aplikacionit të ndryshojë koleksionin tuaj të fotove.",
        "permdesc_install_shortcut": "I lejon një aplikacioni të shtojë shkurtore te Kreu pa ndërhyrje nga përdoruesi.",
        "permdesc_invokeCarrierSetup": "I lejon atij që ka lejen të përdorë aplikacion formësimi të furnizuar nga operatori. S’duhet të jetë kurrë e nevojshme për aplikacione normale.",
        "permdesc_killBackgroundProcesses": "I lejon aplikacionit të përfundojë procese prapaskenë të aplikacioneve të tjera. Kjo mund të sjellë ndaljen e xhirimit të aplikacioneve të tjera.",
        "permdesc_manageFace": "I lejon aplikacionit të thërrasë metoda që të shtojë ose fshijë gjedhe fytyrash për përdorim.",
        "permdesc_manageFingerprint": "I lejon aplikacionit të thërrasë metoda që të shtojë ose fshijë gjedhe shenjash gishtash për përdorim.",
        "permdesc_manageNetworkPolicy": "I lejon aplikacionit të administrojë rregulla rrjeti dhe të përcaktojë rregulla specifike sipas aplikacionesh.",
        "permdesc_manageOwnCalls": "I lejon aplikacionit të kalojë thirrjet e veta përmes sistemit, që të mund të përmirësojë funksionimin e thirrjeve.",
        "permdesc_manageProfileAndDeviceOwners": "I lejon aplikacionit të caktojë të zotë profilesh dhe të zotin e pajisjes.",
        "permdesc_mediaLocation": "I lejon aplikacionit të lexojë vendndodhje prej koleksionit tuaj media.",
        "permdesc_modifyAudioSettings": "I lejon aplikacionit të ndryshojë rregullime globale audio, të tilla si volumi dhe cili altoparlant përdoret për dëgjim.",
        "permdesc_modifyNetworkAccounting": "I lejon aplikacionit të ndryshojë mënyrën se si matet përdorimi i rrjetit kundrejt aplikacioneve. Jo për t’u përdorur nga aplikacione normale.",
        "permdesc_nfc": "I lejon aplikacionit të komunikojë me etiketa, karta dhe lexues NFC (Near Field Communication).",
        "permdesc_persistentActivity": "I lejon aplikacionit të bëjë të qëndrueshme në kujtesë pjesë të vetat. Kjo mund të kufizojë kujtesën e passhme nga aplikacione të tjerë, duke ngadalësuar punën e telefonit.",
        "permdesc_preferredPaymentInfo": "Lejon aplikacionin të marrë informacione për shërbimin e preferuar të pagesës me NFC si p.sh. ndihmat e regjistruara dhe destinacionin e itinerarit.",
        "permdesc_processOutgoingCalls": "I lejon aplikacionit të shohë numrin që po formohet gjatë një thirrjeje me mundësinë e ridrejtimit të thirrjes te një numër tjetër ose të ndërprerjes fare të thirrjes.",
        "permdesc_readCalendar": "Ky aplikacion mund të lexojë krejt veprimtaritë e kalendarit të depozituara në telefonin tuaj dhe të ndajë me të tjerë ose të ruajë të dhëna nga kalendari juaj.",
        "permdesc_readCallLog": "Ky aplikacion mund të lexojë historikun tuaj të thirrjeve.",
        "permdesc_readCellBroadcasts": "I lejon aplikacionit të lexojë mesazhe transmetimesh celulare të marrë nga pajisja juaj. Sinjalizime transmetimesh celulare jepen në disa vende për t’ju vënë në dijeni për gjendje emergjente. Aplikacione dashakeqe mund të përzihen në punën ose funksionimin e pajisjes tuaj, kur merret një transmetim celular urgjence.",
        "permdesc_readContacts": "Lejon aplikacionin të lexojë të dhëna për kontaktet e ruajtura në telefonin tënd. Aplikacionet do të kenë po ashtu qasje te llogaritë në telefonin tënd, të cilat i kanë krijuar kontaktet. Kjo mund të përfshijë llogaritë e krijuara nga aplikacionet që ke instaluar. Kjo leje lejon që aplikacionet të ruajnë të dhënat e tua të kontakteve dhe aplikacionet keqdashëse mund të ndajnë të dhëna të kontakteve pa dijeninë tënde.",
        "permdesc_readHistoryBookmarks": "U lejon aplikacioneve të lexojnë historikun e krejt URL-ve që ka vizituar shfletuesi dhe krejt faqerojtësit e depozituar në të. Shënim: kjo leje mund të mos vihet me detyrim në punë nga shfletues palësh të treta apo aplikacione të tjera me aftësi shfletimi.",
        "permdesc_readInstallSessions": "I lejon një aplikacioni të lexojë sesione instalimi. Kjo i lejon të shohë hollësi rreth instalimesh aktive paketash.",
        "permdesc_readNetworkUsageHistory": "I lejon aplikacionit të lexojë historik përdorimi rrjeti për rrjete dhe aplikacione të caktuar.",
        "permdesc_readPhoneNumbers": "I lejon aplikacionit të hyjë te numra telefoni të pajisjes.",
        "permdesc_readPhoneState": "I lejon aplikacionit të përdorë veçori telefoni të pajisjes. Kjo leje i lejon aplikacionit të përcaktojë numrin e telefonit dhe ID-ra pajisjeje, nëse një thirrje është aktive dhe numrin e largët të lidhur përmes thirrjes.",
        "permdesc_readSms": "Ky aplikacion mund të lexojë krejt mesazhet SMS (tekst) të depozituar në telefonin tuaj.",
        "permdesc_readSyncSettings": "I lejon aplikacionit të lexojë rregullime njëkohësimi për një llogari. Për shembull, kjo mund të përcaktojë nëse aplikacioni People është njëkohësuar me një llogari.",
        "permdesc_readSyncStats": "I lejon një aplikacioni të lexojë gjendje njëkohësimi për një llogari, përfshi historikun e akteve të njëkohësimit dhe se sa të dhëna janë njëkohësuar.",
        "permdesc_receiveBootCompleted": "I lejon aplikacionit të nisë veten sapo sistemi të ketë përfunduar nisjen e tij. Kjo mund të sjellë kohë më të gjatë nisjeje telefoni dhe i lejon aplikacionit të ngadalësojë në përgjithësi telefonin duke xhiruar përherë.",
        "permdesc_receiveMms": "I lejon aplikacionit të marrë dhe përpunojë mesazhe MMS. Kjo do të thotë që aplikacioni mund të mbikëqyrë ose fshijë mesazhe dërguar te pajisja juaj pa ua shfaqur ato juve.",
        "permdesc_receiveSms": "I lejon aplikacionit të marrë dhe përpunojë mesazhe SMS. Kjo do të thotë që aplikacioni mund të mbikëqyrë ose fshijë mesazhe dërguar te pajisja juaj pa ua shfaqur ato juve.",
        "permdesc_receiveWapPush": "I lejon aplikacionit të marrë dhe përpunojë mesazhe WAP. Kjo leje përfshin aftësinë për të mbikëqyrur ose fshirë mesazhe dërguar për ju pa ua shfaqur ato juve.",
        "permdesc_recordAudio": "Ky aplikacion mund të incizojë audio duke përdorur mikrofonin në çfarëdo kohe.",
        "permdesc_register_call_provider": "I lejon aplikacionit të regjistrojë lidhje të reja telekom.",
        "permdesc_register_sim_subscription": "I lejon aplikacionit të regjistrojë lidhje të reja telekom përmes SIM-esh.",
        "permdesc_removeDrmCertificates": "I lejon një aplikacioni të heqë dëshmi DRM. S’duhet të jetë kurrë e nevojshme për aplikacione normale.",
        "permdesc_reorderTasks": "I lejon aplikacionit të kalojë punë në paraskenë dhe prapaskenë. Aplikacioni mund ta bëjë këtë pa ndërhyrjen tuaj.",
        "permdesc_requestDeletePackages": "I lejon një aplikacioni të kërkojë fshirje paketash.",
        "permdesc_requestIgnoreBatteryOptimizations": "I lejon një aplikacioni të kërkojë leje për të shpërfillur optimizime baterie për atë aplikacion.",
        "permdesc_requestInstallPackages": "I lejon një aplikacioni të kërkojë instalim paketash.",
        "permdesc_requestPasswordComplexity": "I lejon aplikacionit të mësojë shkallën e ndërlikimit të kyçjes së ekranit (e lartë, e mesme, e ulët ose asnjë), që lejon një ide mbi intervalin e mundshëm të gjatësisë dhe llojit të kyçjes së ekranit. Aplikacioni mundet edhe t’u sugjerojë përdoruesve të përditësojnë kyçjen e ekranit me një shkallë të caktuar, por përdoruesit mund ta shpërfillin lirisht dhe të vazhdojnë më tej. Kini parasysh që kyçja e ekranit nuk depozitohet si tekst i thjeshtë, kështu që aplikacioni nuk e di fjalëkalimin e saktë.",
        "permdesc_route_media_output": "I lejon një aplikacioni të kalojë sinjal media në pajisje të tjera të jashtme.",
        "permdesc_runInBackground": "Ky aplikacion mund të xhirojë një prapaskenë. Kjo mund të sjellë shterimin më shpejt të baterisë.",
        "permdesc_sdcardRead": "I lejon aplikacionit të lexojë lëndën e depos tuaj të përbashkët.",
        "permdesc_sdcardWrite": "I lejon aplikacionit të shkruajë lëndën e depos tuaj të përbashkët.",
        "permdesc_sendSms": "I lejon aplikacionit të dërgojë mesazhe SMS. Kjo mund të sjellë faturime që s’priteshin. Aplikacionet dashakeqe mund t’ju kushtojnë para duke dërguar mesazhe pa ripohim prej jush.",
        "permdesc_setAlarm": "I lejon aplikacionit të caktojë një alarm te një aplikacion alarmesh/ore të instaluar. Disa aplikacione alarmesh/ore mund të mos e përmbajnë këtë veçori.",
        "permdesc_setInputCalibration": "I lejon aplikacionit të ndryshojë parametra kalibrimi për ekranin me prekje. S’duhet të jetë kurrë i nevojshëm për aplikacione normale.",
        "permdesc_setTimeZone": "I lejon aplikacionit të ndryshojë zonën kohore të telefonit.",
        "permdesc_setWallpaper": "I lejon aplikacionit të caktojë sfondin grafik të sistemit.",
        "permdesc_setWallpaperHints": "I lejon aplikacionit të ujdisë ndihmëza sistemi rreth madhësisë së sfondit.",
        "permdesc_sim_communication": "I lejon aplikacionit të dërgojë urdhra te SIM-i. Kjo është shumë e rrezikshme.",
        "permdesc_startViewPermissionUsage": "I lejon atij që ka lejen të nisë përdorim lejesh për një aplikacion. S’duhet të jetë kurrë e nevojshme për aplikacione normale.",
        "permdesc_statusBar": "I lejon aplikacionit të çaktivizojë shtyllën e gjendjeve ose të shtojë apo heqë ikona sistemi.",
        "permdesc_statusBarService": "I lejon aplikacionit të jetë në shtyllën e gjendjeve.",
        "permdesc_subscribedFeedsRead": "I lejon aplikacionit të marrë hollësi mbi prurje aktualisht të njëkohësuara.",
        "permdesc_systemAlertWindow": "Ky aplikacion mund të shfaqet përsipër aplikacionesh të tjera ose pjesësh të tjera të ekranit. Kjo mund të përzihet me përdorimin normal të aplikacionit dhe të ndryshojë mënyrën se si shfaqen aplikacione të tjera.",
        "permdesc_systemCamera": "Ky aplikacion sistemi ose i privilegjuar mund të nxjerrë fotografi dhe të regjistrojë video duke përdorur një kamerë në çdo moment. Kërkon që autorizimi i android.permission.CAMERA të mbahet edhe nga aplikacioni",
        "permdesc_transmitIr": "I lejon aplikacioni të përdorë transmetuesin infra të kuq të telefonit.",
        "permdesc_uninstall_shortcut": "I lejon aplikacionit të heqë shkurtoren për te Kreu pa ndërhyrje nga përdoruesi.",
        "permdesc_useBiometric": "I lejon aplikacionit të përdorë për mirëfilltësim <em>hardware</em> biometrik",
        "permdesc_useDataInBackground": "Ky aplikacion mund të përdorë të dhëna në prapaskenë. Kjo mund të sjellë rritje të përdorimit të të dhënave.",
        "permdesc_useFaceAuthentication": "Lejon aplikacionin të përdorë harduerin e shkyçjes me fytyrën për procesin e vërtetimit",
        "permdesc_useFingerprint": "I lejon aplikacionit të përdorë për mirëfilltësim <em>hardware</em> shenjash gishtash",
        "permdesc_use_sip": "I lejon aplikacionit të bëjë dhe marrë thirrje SIP.",
        "permdesc_vibrate": "I lejon aplikacionit të kontrollojë dridhësin.",
        "permdesc_vibrator_state": "Lejon që aplikacioni të ketë qasje te gjendja e dridhësit.",
        "permdesc_videoWrite": "I lejon aplikacionit të ndryshojë koleksionin tuaj video.",
        "permdesc_wakeLock": "I lejon aplikacionit të parandalojë kalimin në fjetje të telefonit.",
        "permdesc_writeCalendar": "Ky aplikacion mund të shtojë, heqë ose ndryshojë veprimtari kalendari në telefonin tuaj. Ky aplikacion mund të dërgojë mesazhe që mund të duken se vijnë nga të zotë kalendarësh, ose të ndryshojë veprimtari pa njoftuar të zotët e tyre.",
        "permdesc_writeCallLog": "I lejon aplikacionit të ndryshojë regjistrin e thirrjeve të telefonit tuaj, përfshi të dhëna rreth thirrjesh të marra ose të bëra. Aplikacione dashakeqe mund ta përdorin këtë për të fshirë ose ndryshuar regjistrin tuaj të thirrjeve.",
        "permdesc_writeContacts": "Lejon aplikacionin të modifikojë të dhënat rreth kontakteve të tua të ruajtura në telefonin tënd. Kjo leje lejon që aplikacionet të fshijnë të dhënat e kontakteve.",
        "permdesc_writeGeolocationPermissions": "I lejon aplikacionit të ndryshojnë leje gjeovendëzimi të Shfletuesit. Aplikacione dashakeqe mund ta përdorin këtë për të dërguar te sajte arbitrare të dhëna vendndodhjeje.",
        "permdesc_writeHistoryBookmarks": "E lejon aplikacionin të ndryshojë historikun e shfletuesit ose faqerojtësit e depozituar në telefonin tuaj. Kjo mund ta lejojë aplikacionin të fshijë ose modifikojë të dhëna të shfletuesit. Shënim: kjo leje s’mund të zbatohet me detyrim nga shfletues palësh të treta apo aplikacione të tjera me aftësi shfletimi në web.",
        "permdesc_writeSettings": "I lejon aplikacionit të ndryshojë të dhëna rregullimesh të sistemit. Aplikacione dashakeqe mund të dëmtojnë formësimin e sistemit tuaj.",
        "permdesc_writeSyncSettings": "I lejon një aplikacioni të ndryshojë rregullime njëkohësimi për një llogari. Për shembull, kjo mund të përdoret për të aktivizuar njëkohësim të aplikacionit People me një llogari.",
        "permgroupbackgroundrequest_location": "Lejoje <b>",
        "permgroupbackgroundrequestdetail_location": "Aplikacioni aktualisht mund të përdorë vendndodhjen vetëm kur përdorni aplikacionin",
        "permgroupdesc_activityRecognition": "qasje në aktivitetin tënd fizik",
        "permgroupdesc_calendar": "të përdorë kalendarin tuaj",
        "permgroupdesc_calllog": "të lexojë dhe shkruajë regjistër thirrjesh telefonike",
        "permgroupdesc_camera": "të bëjë foto dhe të regjistrojë video",
        "permgroupdesc_contacts": "të përdorë kontakte tuajat",
        "permgroupdesc_location": "të njohë vendndodhjen e kësaj pajisjeje",
        "permgroupdesc_microphone": "të incizojë audio",
        "permgroupdesc_phone": "të bëjë dhe administrojë thirrje telefonike",
        "permgroupdesc_sensors": "të njohë të dhëna ndijuesi rreth shenjash tuaj vitale",
        "permgroupdesc_sms": "të dërgojë dhe shohë mesazhe SMS",
        "permgroupdesc_storage": "të hyjë në foto, media dhe kartela në pajisjen tuaj",
        "permgrouplab_activityRecognition": "Veprimtari fizike",
        "permgrouplab_calendar": "Kalendar",
        "permgrouplab_calllog": "Regjistra thirrjesh",
        "permgrouplab_camera": "Kamera",
        "permgrouplab_contacts": "Kontakte",
        "permgrouplab_location": "Vendndodhje",
        "permgrouplab_microphone": "Mikrofon",
        "permgrouplab_phone": "Telefon",
        "permgrouplab_sensors": "Ndijues trupi",
        "permgrouplab_sms": "SMS",
        "permgrouplab_storage": "Depozitë",
        "permgrouprequest_activityRecognition": "Lejoje <b>",
        "permgrouprequest_calendar": "Lejoje <b>",
        "permgrouprequest_calllog": "Lejoje <b>",
        "permgrouprequest_camera": "Lejoje <b>",
        "permgrouprequest_contacts": "Lejoje <b>",
        "permgrouprequest_location": "Lejoje <b>",
        "permgrouprequest_microphone": "Lejoje <b>",
        "permgrouprequest_phone": "Lejoje <b>",
        "permgrouprequest_sensors": "Lejoje <b>",
        "permgrouprequest_sms": "Lejoje <b>",
        "permgrouprequest_storage": "Lejoje <b>",
        "permgrouprequestdetail_location": "Aplikacioni do të mund të njohë vendndodhjen teksa përdorni aplikacionin",
        "permlab_acceptHandover": "të vazhdojë një thirrje prej një aplikacioni tjetër",
        "permlab_accessBackgroundLocation": "qasje te vendndodhja në sfond",
        "permlab_accessCoarseLocation": "qasu në vendndodhjen e përafërt vetëm në plan të parë",
        "permlab_accessDrmCertificates": "të hyjë në dëshmi DRM",
        "permlab_accessFineLocation": "të dijë vendndodhjen e saktë vetëm në pjesën e dukshme",
        "permlab_accessImsCallService": "të përdorë shërbim thirrjesh IMS",
        "permlab_accessLocationExtraCommands": "të përdorë urdhra ekstra vendndodhjeje nga furnizuesi i shërbimit",
        "permlab_accessNetworkConditions": "të përgjojë për vëzhgime lidhur me kushte rrjeti",
        "permlab_accessNetworkState": "të shohë lidhje rrjeti",
        "permlab_accessNotifications": "të hyjë te njoftime",
        "permlab_accessWifiState": "të shohë lidhje Wi-Fi",
        "permlab_accessWimaxState": "të lidhet dhe shkëputet nga WiMAX",
        "permlab_access_notification_policy": "të përdorë Mos Më Bezdisni",
        "permlab_activityRecognition": "të kuptojë veprimtari fizike",
        "permlab_addVoicemail": "të shtojë <em>voicemail</em>",
        "permlab_answerPhoneCalls": "t’u përgjigjet thirrjeve telefonike",
        "permlab_audioWrite": "të ndryshojë koleksionin tuaj muzikor",
        "permlab_bindCarrierMessagingService": "të lidhet me një shërbim mesazhesh",
        "permlab_bindCarrierServices": "të lidhet me shërbime operatori",
        "permlab_bindCellBroadcastService": "Transmeto mesazhet e transmetimit celular",
        "permlab_bindConditionProviderService": "të lidhet me një shërbim furnizuesi kushtesh",
        "permlab_bindDreamService": "të lidhet te një shërbim \"dream\"",
        "permlab_bindNotificationListenerService": "të lidhet me një shërbim dëgjuesi njoftimesh",
        "permlab_bind_connection_service": "të ndërveprojë me shërbime telefonike",
        "permlab_bind_incall_service": "të ndërveprojë me skenën in-call",
        "permlab_bluetooth": "të kryejë çiftim me pajisje Bluetooth",
        "permlab_bluetoothAdmin": "të hyjë te rregullime Bluetooth-i",
        "permlab_bodySensors": "të përdorë ndijues trupi (bie fjala monitorë rrahjesh zemre)",
        "permlab_broadcastSticky": "të dërgojë transmetim ngjitës",
        "permlab_callCompanionApp": "të shohë dhe kontrollojë thirrje përmes sistemit.",
        "permlab_callPhone": "të bëjë thirrje të drejtpërdrejta numrash telefoni",
        "permlab_camera": "të bëjë foto dhe video",
        "permlab_cameraOpenCloseListener": "Lejo që një aplikacion ose shërbim të marrë telefonata mbrapsht për pajisjet e kamerës që hapen ose mbyllen.",
        "permlab_changeNetworkState": "të ndryshojë gjendje lidhjeje në rrjet",
        "permlab_changeTetherState": "të ndryshojë gjendje lidhjeje \"tethered\"",
        "permlab_changeWifiMulticastState": "të lejojë marrje Wi-Fi Multicast",
        "permlab_changeWifiState": "të lidhet dhe shkëputet nga Wi-Fi",
        "permlab_changeWimaxState": "të ndryshojë gjendje WiMAX",
        "permlab_connection_manager": "të administrojë lidhje telekom",
        "permlab_control_incall_experience": "ofro një përvojë përdoruesi mbi telefonatat",
        "permlab_createNetworkSockets": "të ketë hyrje të plotë në rrjet",
        "permlab_disableKeyguard": "të çaktivizojë kyçjen tuaj të ekranit",
        "permlab_enableCarMode": "të aktivizojë mënyrën automjet",
        "permlab_exemptFromAudioRecordRestrictions": "përjashto nga kufizimet e regjistrimit të audios",
        "permlab_expandStatusBar": "të zgjerojë/tkurrë shtyllë gjendjeje",
        "permlab_foregroundService": "të xhirojë shërbime në pjesën e dukshme",
        "permlab_getAccounts": "të gjejë llogari te pajisja",
        "permlab_getPackageSize": "të matë hapësirë depozite aplikacioni",
        "permlab_getTasks": "të dijë aplikacionet që janë në punë",
        "permlab_handoverStatus": "të marrë gjendje shpërnguljeje Android Beam",
        "permlab_imagesWrite": "të ndryshojë koleksionin tuaj të fotografive",
        "permlab_install_shortcut": "të instalojë shkurtore",
        "permlab_invokeCarrierSetup": "të vërë në punë aplikacionin e formësimeve të furnizuar nga operatori",
        "permlab_killBackgroundProcesses": "të mbyllë aplikacione të tjera",
        "permlab_manageFace": "menaxho harduerin për shkyçjen me fytyrën",
        "permlab_manageFingerprint": "të administrojë <em>hardware</em> shenjash gishtash",
        "permlab_manageNetworkPolicy": "të administrojë rregulla rrjeti",
        "permlab_manageOwnCalls": "ta kanalizojë thirrje përmes sistemit",
        "permlab_manageProfileAndDeviceOwners": "të administrojë të zotë profilesh dhe pajisjesh",
        "permlab_mediaLocation": "të lexojë vendndodhje prej koleksionit tuaj media",
        "permlab_modifyAudioSettings": "të ndryshojë rregullimet tuaja për audion",
        "permlab_modifyNetworkAccounting": "të ndryshojë llogaritje përdorimi rrjeti",
        "permlab_nfc": "të kontrollojë komunikime NFC",
        "permlab_persistentActivity": "ta bëjë aplikacionin të xhirojë përherë",
        "permlab_preferredPaymentInfo": "Informacionet për shërbimin e preferuar të pagesës me NFC",
        "permlab_processOutgoingCalls": "të rikanalizojë thirrje të bëra",
        "permlab_readCalendar": "Të lexojë veprimtari dhe hollësi kalendarësh",
        "permlab_readCallLog": "të lexojë regjistër thirrjesh",
        "permlab_readCellBroadcasts": "të lexojë mesazhe transmetimi celular",
        "permlab_readContacts": "të lexojë kontaktet tuaj",
        "permlab_readHistoryBookmarks": "të lexojë faqerojtësit dhe historikun tuaj të shfletimit",
        "permlab_readInstallSessions": "të lexojë sesione instalimi",
        "permlab_readNetworkUsageHistory": "të lexojë kronologji përdorimi rrjeti",
        "permlab_readPhoneNumbers": "të lexojë numra telefonash",
        "permlab_readPhoneState": "të lexojë gjendje dhe identitet telefonash",
        "permlab_readSms": "të lexojë mesazhet tuaj tekst (SMS ose MMS)",
        "permlab_readSyncSettings": "të lexojë rregullime njëkohësimi",
        "permlab_readSyncStats": "të lexojë statistika njëkohësimesh",
        "permlab_receiveBootCompleted": "të xhirojë që në nisje",
        "permlab_receiveMms": "të marrë mesazhe tekst (MMS)",
        "permlab_receiveSms": "të marrë mesazhe tekst (SMS)",
        "permlab_receiveWapPush": "të marrë mesazhe tekst (WAP)",
        "permlab_recordAudio": "të incizojë audio",
        "permlab_register_call_provider": "të regjistrojë lidhje telekom të reja",
        "permlab_register_sim_subscription": "të regjistrojë lidhje të reja telekom SIM",
        "permlab_removeDrmCertificates": "të heqë dëshmi DRM",
        "permlab_reorderTasks": "të rirendisë aplikacione që po xhirojnë",
        "permlab_requestDeletePackages": "të kërkojë fshirje paketash",
        "permlab_requestIgnoreBatteryOptimizations": "të kërkojë të shpërfillen optimizime baterie",
        "permlab_requestInstallPackages": "të kërkojë paketa instalimesh",
        "permlab_requestPasswordComplexity": "të kërkojë shkallë ndërlikimi kyçjeje ekrani",
        "permlab_route_media_output": "të kanalizojë output media",
        "permlab_runInBackground": "të xhirojë në prapaskenë",
        "permlab_sdcardRead": "të lexojë lëndën e depos suaj të përbashkët",
        "permlab_sdcardWrite": "të ndryshojë ose fshijë lëndën e depos tuaj të përbashkët",
        "permlab_sendSms": "të dërgojë dhe shohë mesazhe SMS",
        "permlab_setAlarm": "të caktojë alarm",
        "permlab_setInputCalibration": "të ndryshojë kalibrim pajisjesh input-i",
        "permlab_setTimeZone": "të caktojë zonë kohore",
        "permlab_setWallpaper": "të caktojë sfond ekrani",
        "permlab_setWallpaperHints": "të rregullojë madhësinë e sfondit tuaj të ekranit",
        "permlab_sim_communication": "t’i dërgojë SIM-it urdhra",
        "permlab_startViewPermissionUsage": "të nisë përdorim lejesh parjeje",
        "permlab_statusBar": "të çaktivizojë ose ndryshojë shtyllë gjendjesh",
        "permlab_statusBarService": "të jetë shtyllë gjendjesh",
        "permlab_subscribedFeedsRead": "të lexojë prurje pajtimesh",
        "permlab_systemAlertWindow": "Ky aplikacion mund të shfaqet sipër aplikacioneve të tjera",
        "permlab_systemCamera": "Lejo një aplikacion ose shërbim të ketë qasje në kamerat e sistemit për të shkrepur fotografi dhe regjistruar video",
        "permlab_transmitIr": "të transmetojë në brezin infra të kuq",
        "permlab_uninstall_shortcut": "të çinstalojë shkurtore",
        "permlab_useBiometric": "të përdorë <em>hardware</em> biometrik",
        "permlab_useDataInBackground": "të përdorë të dhëna në prapaskenë",
        "permlab_useFaceAuthentication": "përdor harduerin e shkyçjes me fytyrën",
        "permlab_useFingerprint": "të përdorë <em>hardware</em> shenjash gishtash",
        "permlab_use_sip": "të bëjë/marrë thirrje SIP",
        "permlab_vibrate": "të kontrollojë dridhjet",
        "permlab_videoWrite": "të ndryshojë koeksionin tuaj të videove",
        "permlab_wakeLock": "të pengojë telefonin tuaj të flejë",
        "permlab_writeCalendar": "të shtojë ose ndryshojë veprimtari kalendari dhe dërgojë email-e te të ftuarit pa dijeninë e të zotëve",
        "permlab_writeCallLog": "të shkruajë regjistër thirrjesh",
        "permlab_writeContacts": "të ndryshojë kontakte tuajt",
        "permlab_writeGeolocationPermissions": "të ndryshojë leje të Shfletuesit për gjeovendëzim",
        "permlab_writeHistoryBookmarks": "të shkruajë faqerojtës dhe historik shfletimesh",
        "permlab_writeSettings": "të ndryshojë rregullime sistemi",
        "permlab_writeSyncSettings": "të atkivizojë/çaktivizojë njëkohësime"
    },
    "sidebars": {
        "donate": {
            "bank_transfer_name": "Emër",
            "bitcoin_alt": "Dhuroni përmes Bitcoin-it",
            "flattr_alt": "Dhuroni përmes Flattr-it",
            "heading": "Dhuroni",
            "hellotux": "👕 Bluza 👕 nga",
            "hellotux_alt": "HELLOTUX",
            "hellotux_donation": "F-Droid do të përfitojë 3€ për bluzë të shitur.",
            "liberapay_alt": "Dhuroni përmes Liberapay-it",
            "litecoin_alt": "Dhuroni përmes Litecoin-it",
            "opencollective_alt": "Dhuroni për Kolektivin tonë",
            "paypal_alt": "Dhuroni përmes PayPal-it",
            "powered_by_donations": "F-Droid bazohet te dhurimet tuaja!",
            "via_bank_transfer": "Transfertë Bankare"
        },
        "lang": {
            "change": "Ndryshoje"
        },
        "last_updated": {
            "heading": "Të Përditësuar Së Fundi"
        },
        "latest_packages": {
            "heading": "Aplikacionet Më të Reja"
        },
        "news": {
            "heading": "Lajme"
        },
        "search": {
            "heading": "Gjeni Aplikacione",
            "noscript": "Që të aktivizohet, lyp Javascript",
            "search": "Kërko"
        }
    }
}
